CSGain, CSStability 
0.0, 1.0
1705.652, 0.990234375
1846.294, 0.9756637168141593
1880.888, 0.9425287356321839
1880.888, 0.9563218390804598
1174.798, 0.687192118226601
1922.362, 0.7681159420289855
2004.015, 0.7183544303797469
2024.595, 0.7475728155339806
2025.837, 0.7249190938511327
2028.073, 0.7337662337662337
2028.073, 0.7207792207792207
1380.165, 0.5068027210884354
2024.584, 0.6353383458646616
2086.282, 0.584
2096.736, 0.5582329317269076
