numberOfAgents;gain
20;1.6245e+09
100;1.5871e+10
500;3.2828e+10
1000;3.4449e+10
1500;3.514e+10
2000;3.5384e+10
2500;3.5873e+10
3000;3.6246e+10
3500;3.6436e+10
4000;3.6418e+10
4500;3.6468e+10
5000;3.6624e+10