30 28 19 28 18 42 37 41 40 36
34 41 36 45 58 64 58 69 61 45
54 64 54 65 77 90 92 87 87 60
74 89 56 94 92 107 110 107 86 98
106 112 84 101 132 139 134 119 120 124
132 122 117 123 148 151 159 136 143 159
153 136 147 158 171 172 173 161 171 185
168 173 185 156 192 206 192 182 201 195
185 186 209 192 215 218 208 226 202 223
203 213 210 228 232 226 236 254 236 234
252 259 227 254 271 277 258 268 280 243
274 274 240 267 290 303 268 290 295 274
256 299 279 309 329 323 293 323 309 287
295 337 289 326 345 335 317 338 351 312
325 349 311 343 363 348 333 355 373 340
345 368 338 365 384 378 372 375 408 359
380 381 359 391 408 387 414 396 412 388
406 419 367 417 431 422 449 419 430 402
416 450 402 430 450 462 467 435 452 439
