\relax 
\@writefile{lof}{\contentsline {figure}{\numberline {1}{\ignorespaces Gain: Energy Purchasing\relax }}{}}
\@writefile{lof}{\contentsline {figure}{\numberline {2}{\ignorespaces Gain: Resource Sharing\relax }}{}}
\@writefile{lof}{\contentsline {figure}{\numberline {3}{\ignorespaces Stability: Energy Purchasing\relax }}{}}
\@writefile{lof}{\contentsline {figure}{\numberline {4}{\ignorespaces Stability: Resource Sharing\relax }}{}}
