1000
168,529,577,839,229,786,95,379,565,450,733,914,206,357,996,553,211,896,579,444,513,827,978,176,897,954,646,62,97,183,113,658,320,64,164,202,432,70,336,503,538,899,603,766,596,956,45,711,948,471,519,558,753,736,748,851,925,237,365,377,25,286,762,855,372,836,133,737,964,887,54,611,723,191,184,474,48,491,714,224,533,85,138,682,982,340,100,742,518,806,3,177,152,407,264,752,765,595,854,826,225,484,456,580,701,507,248,439,496,623,567,361,408,739,399,729,859,187,292,675,514,539,543,198,824,10,87,498,217,420,570,412,370,531,196,362,102,842,161,218,351,656,724,477,483,72,139,179,27,537,602,523,423,511,833,673,850,61,911,722,397,716,931,871,906,475,485,840,552,655,834,910,504,976,879,919,374,614,210,331,137,986,638,699,441,769,94,356,390,193,926,661,618,809,141,463,303,480,541,801,352,708,442,252,385,452,601,822,971,259,391,670,589,902,409,312,785,88,951,858,814,883,265,414,631,490,891,688,977,707,1000,300,863,275,690,60,908
74,143,578,649,207,469,98,132,222,270,862,159,741,604,613,76,360,961,223,492,835,609,796,990,573,653,32,376,560,916,639,823,451,730,775,180,93,881,297,890,815,447,692,860,129,230,324,140,108,645,591,718,400,318,846,135,740,901,936,99,162,953,178,216,966,415,461,585,46,247,438,367,960,43,9,195,80,363,544,209,250,482,499,600,694,510,478,50,200,42,790,940,782,315,321,564,715,124,588,825,38,369,347,18,861,624,651,34,258,304,443,213,598,932,203,283,426,382,837,512,21,12,467,142,853,583,968,884,909,242,394,434,534,355,201,163,959,13,154,524,819,273,460,965,440,311,236,175,51,530,309,758,334,167,232,153,405,517,626,487,515,157,214,660,665,642,481,555,516,780,576,727,811,144,169,419,605,942,330,755,8,172,68,987,403,621,212,807,291,332,754,66,888,182,285,78,832,635,681,743,917,37,892,373,547,522,777,261,784,19,619,509,549,349,980,654,875,160,433,895,845,389,989,818,110,288,83,563,821,767,16,52,277,557,662,386,422,647,404,628,779,156,597,282,77,322,885,838,872,962,388,49,235,572,20,371,302,882,107,634,995,874,151,493,4,244,319,486,625,698,298,346,561,501,536,28,666,262,396,36,894,678,771,831,955,416,528,395,593,671,912,633,462,566,732,472,158,323,429,428,497,91,215,59,130,473,494,958,880,174,105,791,146,410,667,254,281,341,934,241,353,104,924,788,121,344,194,864,454,847,747,263,770,944,923,23,479,114,669,949,411,627,590,709,562,136,290,295,272,111,185,495,683,920,648,650,246,424,204,569,343,86,500,843,599,103,870,969,228,947,664,805,520,659,240,802,17,575,728,963,907,972,893,793,712,40,886,1,554,844,418,35,147,256,117,857,134,685,691,350,720,345,981,878,131,166,255,328,574,939,189,173,368,568,364,276,721,643,830,227,337,476,772,401,620,657,663,800,5,335,985,271,381,375,705,448,63,525,89,582,545,535,622,629,700,73,679,774,998,233,877,812,69,927,55,763,84,90,581,616,306,427,710,676,797,898,913,171,431,745,457,868,905,459,952,915,615,704,869,970,354,689,22,267,11,392,637,47,296,865,922,468,502,592,640,221,348,30,841,946,778,208,279,848,199,632,810,245,181,205,358,686,268,329,71,556,684,7,421,92,636,768,677,731,756,792,950,299,829,305,393,856,610,719,929,918,26,973,999,333,387,803,994,308,776,96,116,744,984,587,122,465,992,749,935,820,941,921,274,326,816,109,2,466,449,540,527,584,506,464,726,760,79,170,57,239,703,757,307,668,672,795,526,967,652,112,301,542,697,900,67,310,417,82,231,437,680,787,269,453,81,380,943,974,983,446,145,24,702,717,866,993,937,695,317,783,488,413,687,118,33,251,889,928,406,123,781,997,226,586,794,165,630,713,608,828,644,696,14,606,219,532,338,115,470,873,746,930,384,789,975,933,612,764,804,904,725,571,234,243,798,867,316,39,238,458,876,548,738,938,734,119,155,287,293,430,6,190,546,101,945,58,127,988,425,106,402,31,445,551,65,128,817,44,186,314,759,294,435,150,289,594,903,455,508,617,808,266,398,559,359,489,849,284,505,674,813,56,979,773,991,641,751,607,750,735,761,249,957,148,436,126,253,197,325,41,257,220,339,192,29,149,188,383,366,378,125,313,550,278,280,260,120,521,327,693,799,75,15,706,342,53,852
