This is pdfTeX, Version 3.14159265-2.6-1.40.16 (TeX Live 2015) (preloaded format=pdflatex 2015.5.24)  1 DEC 2015 15:05
entering extended mode
 restricted \write18 enabled.
 file:line:error style messages enabled.
 %&-line parsing enabled.
**\nonstopmode \input /Users/janovsky/workspace/CFSimulator/experiments/process
-experiments/stab3-withDeviationSeparateRecursiveDecreasingALL/experiments.tex

(/Users/janovsky/workspace/CFSimulator/experiments/process-experiments/stab3-wi
thDeviationSeparateRecursiveDecreasingALL/experiments.tex
(/usr/local/texlive/2015/texmf-dist/tex/latex/base/article.cls
Document Class: article 2014/09/29 v1.4h Standard LaTeX document class
(/usr/local/texlive/2015/texmf-dist/tex/latex/base/size10.clo
File: size10.clo 2014/09/29 v1.4h Standard LaTeX file (size option)
)
\c@part=\count79
\c@section=\count80
\c@subsection=\count81
\c@subsubsection=\count82
\c@paragraph=\count83
\c@subparagraph=\count84
\c@figure=\count85
\c@table=\count86
\abovecaptionskip=\skip41
\belowcaptionskip=\skip42
\bibindent=\dimen102
)
(/usr/local/texlive/2015/texmf-dist/tex/latex/geometry/geometry.sty
Package: geometry 2010/09/12 v5.6 Page Geometry

(/usr/local/texlive/2015/texmf-dist/tex/latex/graphics/keyval.sty
Package: keyval 2014/10/28 v1.15 key=value parser (DPC)
\KV@toks@=\toks14
)
(/usr/local/texlive/2015/texmf-dist/tex/generic/oberdiek/ifpdf.sty
Package: ifpdf 2011/01/30 v2.3 Provides the ifpdf switch (HO)
Package ifpdf Info: pdfTeX in PDF mode is detected.
)
(/usr/local/texlive/2015/texmf-dist/tex/generic/oberdiek/ifvtex.sty
Package: ifvtex 2010/03/01 v1.5 Detect VTeX and its facilities (HO)
Package ifvtex Info: VTeX not detected.
)
(/usr/local/texlive/2015/texmf-dist/tex/generic/ifxetex/ifxetex.sty
Package: ifxetex 2010/09/12 v0.6 Provides ifxetex conditional
)
\Gm@cnth=\count87
\Gm@cntv=\count88
\c@Gm@tempcnt=\count89
\Gm@bindingoffset=\dimen103
\Gm@wd@mp=\dimen104
\Gm@odd@mp=\dimen105
\Gm@even@mp=\dimen106
\Gm@layoutwidth=\dimen107
\Gm@layoutheight=\dimen108
\Gm@layouthoffset=\dimen109
\Gm@layoutvoffset=\dimen110
\Gm@dimlist=\toks15
)
(/usr/local/texlive/2015/texmf-dist/tex/latex/graphics/graphicx.sty
Package: graphicx 2014/10/28 v1.0g Enhanced LaTeX Graphics (DPC,SPQR)

(/usr/local/texlive/2015/texmf-dist/tex/latex/graphics/graphics.sty
Package: graphics 2014/10/28 v1.0p Standard LaTeX Graphics (DPC,SPQR)

(/usr/local/texlive/2015/texmf-dist/tex/latex/graphics/trig.sty
Package: trig 1999/03/16 v1.09 sin cos tan (DPC)
)
(/usr/local/texlive/2015/texmf-dist/tex/latex/latexconfig/graphics.cfg
File: graphics.cfg 2010/04/23 v1.9 graphics configuration of TeX Live
)
Package graphics Info: Driver file: pdftex.def on input line 94.

(/usr/local/texlive/2015/texmf-dist/tex/latex/pdftex-def/pdftex.def
File: pdftex.def 2011/05/27 v0.06d Graphics/color for pdfTeX

(/usr/local/texlive/2015/texmf-dist/tex/generic/oberdiek/infwarerr.sty
Package: infwarerr 2010/04/08 v1.3 Providing info/warning/error messages (HO)
)
(/usr/local/texlive/2015/texmf-dist/tex/generic/oberdiek/ltxcmds.sty
Package: ltxcmds 2011/11/09 v1.22 LaTeX kernel commands for general use (HO)
)
\Gread@gobject=\count90
))
\Gin@req@height=\dimen111
\Gin@req@width=\dimen112
)
(/usr/local/texlive/2015/texmf-dist/tex/latex/caption/caption.sty
Package: caption 2013/05/02 v3.3-89 Customizing captions (AR)

(/usr/local/texlive/2015/texmf-dist/tex/latex/caption/caption3.sty
Package: caption3 2013/05/02 v1.6-88 caption3 kernel (AR)
Package caption3 Info: TeX engine: e-TeX on input line 57.
\captionmargin=\dimen113
\captionmargin@=\dimen114
\captionwidth=\dimen115
\caption@tempdima=\dimen116
\caption@indent=\dimen117
\caption@parindent=\dimen118
\caption@hangindent=\dimen119
)
\c@ContinuedFloat=\count91
)
(/usr/local/texlive/2015/texmf-dist/tex/latex/caption/subcaption.sty
Package: subcaption 2013/02/03 v1.1-62 Sub-captions (AR)
\c@subfigure=\count92
\c@subtable=\count93
)
(./experiments.aux)
\openout1 = `experiments.aux'.

LaTeX Font Info:    Checking defaults for OML/cmm/m/it on input line 12.
LaTeX Font Info:    ... okay on input line 12.
LaTeX Font Info:    Checking defaults for T1/cmr/m/n on input line 12.
LaTeX Font Info:    ... okay on input line 12.
LaTeX Font Info:    Checking defaults for OT1/cmr/m/n on input line 12.
LaTeX Font Info:    ... okay on input line 12.
LaTeX Font Info:    Checking defaults for OMS/cmsy/m/n on input line 12.
LaTeX Font Info:    ... okay on input line 12.
LaTeX Font Info:    Checking defaults for OMX/cmex/m/n on input line 12.
LaTeX Font Info:    ... okay on input line 12.
LaTeX Font Info:    Checking defaults for U/cmr/m/n on input line 12.
LaTeX Font Info:    ... okay on input line 12.

*geometry* driver: auto-detecting
*geometry* detected driver: pdftex
*geometry* verbose mode - [ preamble ] result:
* driver: pdftex
* paper: a4paper
* layout: <same size as paper>
* layoutoffset:(h,v)=(0.0pt,0.0pt)
* modes: 
* h-part:(L,W,R)=(28.45274pt, 540.60239pt, 28.45274pt)
* v-part:(T,H,B)=(28.45274pt, 788.14136pt, 28.45274pt)
* \paperwidth=597.50787pt
* \paperheight=845.04684pt
* \textwidth=540.60239pt
* \textheight=788.14136pt
* \oddsidemargin=-43.81725pt
* \evensidemargin=-43.81725pt
* \topmargin=-80.81725pt
* \headheight=12.0pt
* \headsep=25.0pt
* \topskip=10.0pt
* \footskip=30.0pt
* \marginparwidth=57.0pt
* \marginparsep=11.0pt
* \columnsep=10.0pt
* \skip\footins=9.0pt plus 4.0pt minus 2.0pt
* \hoffset=0.0pt
* \voffset=0.0pt
* \mag=1000
* \@twocolumnfalse
* \@twosidefalse
* \@mparswitchfalse
* \@reversemarginfalse
* (1in=72.27pt=25.4mm, 1cm=28.453pt)

(/usr/local/texlive/2015/texmf-dist/tex/context/base/supp-pdf.mkii
[Loading MPS to PDF converter (version 2006.09.02).]
\scratchcounter=\count94
\scratchdimen=\dimen120
\scratchbox=\box26
\nofMPsegments=\count95
\nofMParguments=\count96
\everyMPshowfont=\toks16
\MPscratchCnt=\count97
\MPscratchDim=\dimen121
\MPnumerator=\count98
\makeMPintoPDFobject=\count99
\everyMPtoPDFconversion=\toks17
) (/usr/local/texlive/2015/texmf-dist/tex/generic/oberdiek/pdftexcmds.sty
Package: pdftexcmds 2011/11/29 v0.20 Utility functions of pdfTeX for LuaTeX (HO
)

(/usr/local/texlive/2015/texmf-dist/tex/generic/oberdiek/ifluatex.sty
Package: ifluatex 2010/03/01 v1.3 Provides the ifluatex switch (HO)
Package ifluatex Info: LuaTeX not detected.
)
Package pdftexcmds Info: LuaTeX not detected.
Package pdftexcmds Info: \pdf@primitive is available.
Package pdftexcmds Info: \pdf@ifprimitive is available.
Package pdftexcmds Info: \pdfdraftmode found.
)
(/usr/local/texlive/2015/texmf-dist/tex/latex/oberdiek/epstopdf-base.sty
Package: epstopdf-base 2010/02/09 v2.5 Base part for package epstopdf

(/usr/local/texlive/2015/texmf-dist/tex/latex/oberdiek/grfext.sty
Package: grfext 2010/08/19 v1.1 Manage graphics extensions (HO)

(/usr/local/texlive/2015/texmf-dist/tex/generic/oberdiek/kvdefinekeys.sty
Package: kvdefinekeys 2011/04/07 v1.3 Define keys (HO)
))
(/usr/local/texlive/2015/texmf-dist/tex/latex/oberdiek/kvoptions.sty
Package: kvoptions 2011/06/30 v3.11 Key value format for package options (HO)

(/usr/local/texlive/2015/texmf-dist/tex/generic/oberdiek/kvsetkeys.sty
Package: kvsetkeys 2012/04/25 v1.16 Key value parser (HO)

(/usr/local/texlive/2015/texmf-dist/tex/generic/oberdiek/etexcmds.sty
Package: etexcmds 2011/02/16 v1.5 Avoid name clashes with e-TeX commands (HO)
Package etexcmds Info: Could not find \expanded.
(etexcmds)             That can mean that you are not using pdfTeX 1.50 or
(etexcmds)             that some package has redefined \expanded.
(etexcmds)             In the latter case, load this package earlier.
)))
Package grfext Info: Graphics extension search list:
(grfext)             [.png,.pdf,.jpg,.mps,.jpeg,.jbig2,.jb2,.PNG,.PDF,.JPG,.JPE
G,.JBIG2,.JB2,.eps]
(grfext)             \AppendGraphicsExtensions on input line 452.

(/usr/local/texlive/2015/texmf-dist/tex/latex/latexconfig/epstopdf-sys.cfg
File: epstopdf-sys.cfg 2010/07/13 v1.3 Configuration of (r)epstopdf for TeX Liv
e
))
Package caption Info: Begin \AtBeginDocument code.
Package caption Info: End \AtBeginDocument code.

<stabilitySUMefMarketBasedSizePenalizedEvaluationFunction.pdf, id=1, 361.35pt x
 361.35pt>
File: stabilitySUMefMarketBasedSizePenalizedEvaluationFunction.pdf Graphic file
 (type pdf)
 <use stabilitySUMefMarketBasedSizePenalizedEvaluationFunction.pdf>
Package pdftex.def Info: stabilitySUMefMarketBasedSizePenalizedEvaluationFuncti
on.pdf used on input line 23.
(pdftex.def)             Requested size: 169.29381pt x 169.29417pt.
LaTeX Font Info:    External font `cmex10' loaded for size
(Font)              <7> on input line 24.
LaTeX Font Info:    External font `cmex10' loaded for size
(Font)              <5> on input line 24.

<stabilityWEAKefMarketBasedSizePenalizedEvaluationFunction.pdf, id=2, 361.35pt 
x 361.35pt>
File: stabilityWEAKefMarketBasedSizePenalizedEvaluationFunction.pdf Graphic fil
e (type pdf)

<use stabilityWEAKefMarketBasedSizePenalizedEvaluationFunction.pdf>
Package pdftex.def Info: stabilityWEAKefMarketBasedSizePenalizedEvaluationFunct
ion.pdf used on input line 27.
(pdftex.def)             Requested size: 169.29381pt x 169.29417pt.

<stabilitySUMefDistanceToTargetEvaluationFunction.pdf, id=3, 361.35pt x 361.35p
t>
File: stabilitySUMefDistanceToTargetEvaluationFunction.pdf Graphic file (type p
df)
 <use stabilitySUMefDistanceToTargetEvaluationFunction.pdf>
Package pdftex.def Info: stabilitySUMefDistanceToTargetEvaluationFunction.pdf u
sed on input line 40.
(pdftex.def)             Requested size: 169.29381pt x 169.29417pt.

<stabilityWEAKefDistanceToTargetEvaluationFunction.pdf, id=4, 361.35pt x 361.35
pt>
File: stabilityWEAKefDistanceToTargetEvaluationFunction.pdf Graphic file (type 
pdf)
 <use stabilityWEAKefDistanceToTargetEvaluationFunction.pdf>
Package pdftex.def Info: stabilityWEAKefDistanceToTargetEvaluationFunction.pdf 
used on input line 44.
(pdftex.def)             Requested size: 169.29381pt x 169.29417pt.

<stabilitySUMefBoundedSumEvaluationFunction.pdf, id=5, 361.35pt x 361.35pt>
File: stabilitySUMefBoundedSumEvaluationFunction.pdf Graphic file (type pdf)

<use stabilitySUMefBoundedSumEvaluationFunction.pdf>
Package pdftex.def Info: stabilitySUMefBoundedSumEvaluationFunction.pdf used on
 input line 57.
(pdftex.def)             Requested size: 169.29381pt x 169.29417pt.

<stabilityWEAKefBoundedSumEvaluationFunction.pdf, id=6, 361.35pt x 361.35pt>
File: stabilityWEAKefBoundedSumEvaluationFunction.pdf Graphic file (type pdf)

<use stabilityWEAKefBoundedSumEvaluationFunction.pdf>
Package pdftex.def Info: stabilityWEAKefBoundedSumEvaluationFunction.pdf used o
n input line 61.
(pdftex.def)             Requested size: 169.29381pt x 169.29417pt.

<stabilitySUMefEnergyPurchasingEvaluationFunction.pdf, id=7, 361.35pt x 361.35p
t>
File: stabilitySUMefEnergyPurchasingEvaluationFunction.pdf Graphic file (type p
df)
 <use stabilitySUMefEnergyPurchasingEvaluationFunction.pdf>
Package pdftex.def Info: stabilitySUMefEnergyPurchasingEvaluationFunction.pdf u
sed on input line 74.
(pdftex.def)             Requested size: 169.29381pt x 169.29417pt.

<stabilityWEAKefEnergyPurchasingEvaluationFunction.pdf, id=8, 361.35pt x 361.35
pt>
File: stabilityWEAKefEnergyPurchasingEvaluationFunction.pdf Graphic file (type 
pdf)
 <use stabilityWEAKefEnergyPurchasingEvaluationFunction.pdf>
Package pdftex.def Info: stabilityWEAKefEnergyPurchasingEvaluationFunction.pdf 
used on input line 78.
(pdftex.def)             Requested size: 169.29381pt x 169.29417pt.

<gainefMarketBasedSizePenalizedEvaluationFunction.pdf, id=9, 361.35pt x 361.35p
t>
File: gainefMarketBasedSizePenalizedEvaluationFunction.pdf Graphic file (type p
df)
 <use gainefMarketBasedSizePenalizedEvaluationFunction.pdf>
Package pdftex.def Info: gainefMarketBasedSizePenalizedEvaluationFunction.pdf u
sed on input line 94.
(pdftex.def)             Requested size: 256.0748pt x 256.07509pt.

<gainefDistanceToTargetEvaluationFunction.pdf, id=10, 361.35pt x 361.35pt>
File: gainefDistanceToTargetEvaluationFunction.pdf Graphic file (type pdf)

<use gainefDistanceToTargetEvaluationFunction.pdf>
Package pdftex.def Info: gainefDistanceToTargetEvaluationFunction.pdf used on i
nput line 99.
(pdftex.def)             Requested size: 256.0748pt x 256.07509pt.

<gainefBoundedSumEvaluationFunction.pdf, id=11, 361.35pt x 361.35pt>
File: gainefBoundedSumEvaluationFunction.pdf Graphic file (type pdf)

<use gainefBoundedSumEvaluationFunction.pdf>
Package pdftex.def Info: gainefBoundedSumEvaluationFunction.pdf used on input l
ine 104.
(pdftex.def)             Requested size: 256.0748pt x 256.07509pt.

<gainefEnergyPurchasingEvaluationFunction.pdf, id=12, 361.35pt x 361.35pt>
File: gainefEnergyPurchasingEvaluationFunction.pdf Graphic file (type pdf)

<use gainefEnergyPurchasingEvaluationFunction.pdf>
Package pdftex.def Info: gainefEnergyPurchasingEvaluationFunction.pdf used on i
nput line 109.
(pdftex.def)             Requested size: 256.0748pt x 256.07509pt.

<legend.pdf, id=13, 289.35522pt x 91.8351pt>
File: legend.pdf Graphic file (type pdf)
 <use legend.pdf>
Package pdftex.def Info: legend.pdf used on input line 115.
(pdftex.def)             Requested size: 369.88582pt x 117.39717pt.

Overfull \hbox (113.81102pt too wide) in paragraph at lines 115--116
 [][] 
 []

[1{/usr/local/texlive/2015/texmf-var/fonts/map/pdftex/updmap/pdftex.map} <./sta
bilitySUMefMarketBasedSizePenalizedEvaluationFunction.pdf> <./stabilityWEAKefMa
rketBasedSizePenalizedEvaluationFunction.pdf> <./stabilitySUMefDistanceToTarget
EvaluationFunction.pdf> <./stabilityWEAKefDistanceToTargetEvaluationFunction.pd
f> <./stabilitySUMefBoundedSumEvaluationFunction.pdf> <./stabilityWEAKefBounded
SumEvaluationFunction.pdf> <./stabilitySUMefEnergyPurchasingEvaluationFunction.
pdf> <./stabilityWEAKefEnergyPurchasingEvaluationFunction.pdf>] [2 <./gainefMar
ketBasedSizePenalizedEvaluationFunction.pdf> <./gainefDistanceToTargetEvaluatio
nFunction.pdf> <./gainefBoundedSumEvaluationFunction.pdf> <./gainefEnergyPurcha
singEvaluationFunction.pdf> <./legend.pdf>] (./experiments.aux) ) 
Here is how much of TeX's memory you used:
 3116 strings out of 493089
 51909 string characters out of 6134842
 115730 words of memory out of 5000000
 6590 multiletter control sequences out of 15000+600000
 3948 words of font info for 15 fonts, out of 8000000 for 9000
 1141 hyphenation exceptions out of 8191
 38i,9n,38p,392b,427s stack positions out of 5000i,500n,10000p,200000b,80000s
</usr/local/te
xlive/2015/texmf-dist/fonts/type1/public/amsfonts/cm/cmbx10.pfb>
Output written on experiments.pdf (2 pages, 78230 bytes).
PDF statistics:
 100 PDF objects out of 1000 (max. 8388607)
 67 compressed objects within 1 object stream
 0 named destinations out of 1000 (max. 500000)
 66 words of extra memory for PDF output out of 10000 (max. 10000000)

